[
    {
        "adminStrength": 0.66,
        "groupId": 1234,
        "name": "Oleh",
        "users": [
            {
                "user_name": "Oleh"
            },
            {
                "user_name": "Artem"
            }
        ]
    },
    {
        "adminStrength": 0.785,
        "groupId": 334,
        "name": "Oleh",
        "users": [
            {
                "user_name": "Vasya"
            },
            {
                "user_name": "Mihail"
            }
        ]
    },
    {
        "adminStrength": 0.25,
        "groupId": 124534,
        "name": "Volodinmir",
        "users": [
            {
                "user_name": "Anna"
            },
            {
                "user_name": "Aleksey"
            }
        ]
    },
    {
        "adminStrength": 0.35,
        "groupId": 21234,
        "name": "Evgeniy",
        "users": [
            {
                "user_name": "Victor"
            },
            {
                "user_name": "Peter"
            }
        ]
    },
    {
        "adminStrength": 1.0,
        "groupId": 1,
        "name": "Ruslan",
        "users": [
            {
                "user_name": "Pasha"
            },
            {
                "user_name": "Tolik"
            }
        ]
    }
]
